<?xml version="1.0" encoding="UTF-8" standalone="no"?>
<svg
   xmlns:dc="http://purl.org/dc/elements/1.1/"
   xmlns:cc="http://creativecommons.org/ns#"
   xmlns:rdf="http://www.w3.org/1999/02/22-rdf-syntax-ns#"
   xmlns:svg="http://www.w3.org/2000/svg"
   xmlns="http://www.w3.org/2000/svg"
   id="svg8"
   version="1.1"
   viewBox="0 0 364.35819 231.63956"
   height="231.63956mm"
   width="364.35818mm">
  <defs
     id="defs2">
    <marker
       style="overflow:visible"
       orient="auto"
       refY="0"
       refX="0"
       id="RazorWire">
      <path
         d="m 0.02272727,-0.74009011 v 1.4375 L -7.7585227,3.0099099 H 10.678977 L 3.4914773,0.69740989 v -1.4375 L 10.741477,-2.8963401 H -7.7272727 Z"
         style="fill:#fdfd00;fill-opacity:1;fill-rule:evenodd;stroke:#fdfd00;stroke-width:0.10000001pt;stroke-opacity:1"
         transform="scale(0.8)"
         id="path1500" />
    </marker>
    <marker
       style="overflow:visible"
       id="Arrow1Lstart"
       refX="0"
       refY="0"
       orient="auto">
      <path
         transform="matrix(0.8,0,0,0.8,10,0)"
         style="fill:#000000;fill-opacity:1;fill-rule:evenodd;stroke:#000000;stroke-width:1.00000003pt;stroke-opacity:1"
         d="M 0,0 5,-5 -12.5,0 5,5 Z"
         id="path1268" />
    </marker>
  </defs>
  <metadata
     id="metadata5">
    <rdf:RDF>
      <cc:Work
         rdf:about="">
        <dc:format>image/svg+xml</dc:format>
        <dc:type
           rdf:resource="http://purl.org/dc/dcmitype/StillImage" />
        <dc:title></dc:title>
      </cc:Work>
    </rdf:RDF>
  </metadata>
  <g
     transform="translate(31.485651,-86.753788)"
     id="layer1">
    <path
       id="path911"
       d="M -31.414654,223.00194 198.79332,87.153062"
       style="fill:none;stroke:#7e7e7e;stroke-width:0.25;stroke-linecap:butt;stroke-linejoin:miter;stroke-miterlimit:4;stroke-dasharray:none;stroke-dashoffset:0;stroke-opacity:1" />
    <path
       id="path911-3"
       d="M 332.43946,217.77986 102.1091,87.109981"
       style="fill:none;stroke:#7e7e7e;stroke-width:0.25;stroke-linecap:butt;stroke-linejoin:miter;stroke-miterlimit:4;stroke-dasharray:none;stroke-dashoffset:0;stroke-opacity:1" />
    <path
       id="path911-3-6"
       d="M 332.81393,223.69806 91.605785,86.857059"
       style="fill:none;stroke:#7e7e7e;stroke-width:0.25;stroke-linecap:butt;stroke-linejoin:miter;stroke-miterlimit:4;stroke-dasharray:none;stroke-dashoffset:0;stroke-opacity:1" />
    <path
       id="path911-7"
       d="M -31.386244,228.31904 207.78415,87.181313"
       style="fill:none;stroke:#7e7e7e;stroke-width:0.25;stroke-linecap:butt;stroke-linejoin:miter;stroke-miterlimit:4;stroke-dasharray:none;stroke-dashoffset:0;stroke-opacity:1" />
    <path
       id="path911-5"
       d="M -31.153198,253.63317 230.84984,87.1723"
       style="fill:none;stroke:#7e7e7e;stroke-width:0.25;stroke-linecap:butt;stroke-linejoin:miter;stroke-miterlimit:4;stroke-dasharray:none;stroke-dashoffset:0;stroke-opacity:1" />
    <path
       id="path911-5-3"
       d="M -31.132503,318.20336 332.3809,87.249007"
       style="fill:none;stroke:#7e7e7e;stroke-width:0.25;stroke-linecap:butt;stroke-linejoin:miter;stroke-miterlimit:4;stroke-dasharray:none;stroke-dashoffset:0;stroke-opacity:1" />
    <path
       id="path981"
       d="M -31.437412,155.2438 332.52958,155.00951"
       style="fill:none;stroke:#7e7e7e;stroke-width:0.25;stroke-linecap:butt;stroke-linejoin:miter;stroke-miterlimit:4;stroke-dasharray:none;stroke-dashoffset:0;stroke-opacity:1" />
    <path
       id="path981-5"
       d="m -31.377914,178.47625 363.951404,0.23429"
       style="fill:none;stroke:#7e7e7e;stroke-width:0.25;stroke-linecap:butt;stroke-linejoin:miter;stroke-miterlimit:4;stroke-dasharray:none;stroke-dashoffset:0;stroke-opacity:1" />
    <path
       id="path911-3-6-6"
       d="M 332.2656,245.24308 66.991386,87.126248"
       style="fill:none;stroke:#7e7e7e;stroke-width:0.25;stroke-linecap:butt;stroke-linejoin:miter;stroke-miterlimit:4;stroke-dasharray:none;stroke-dashoffset:0;stroke-opacity:1" />
    <g
       transform="matrix(0.26458333,0,0,0.26458333,71.421266,113.88019)"
       id="g1129">
      <g
         id="g5450"
         transform="translate(-790.4837,48.218043)" />
      <path
         style="fill:#000000;fill-opacity:1;stroke:none;stroke-width:0.01104854;stroke-opacity:1"
         d=""
         id="path5551" />
      <path
         style="fill:#000000;fill-opacity:1;stroke:none;stroke-width:0.00390625;stroke-opacity:1"
         d=""
         id="path5557" />
      <path
         style="fill:#000000;fill-opacity:1;stroke:none;stroke-width:0.70710677;stroke-opacity:1"
         d=""
         id="path5567" />
      <path
         style="fill:#000000;fill-opacity:1;stroke:none;stroke-width:0.70710677;stroke-opacity:1"
         d=""
         id="path5573" />
      <path
         style="fill:#000000;fill-opacity:1;stroke:none;stroke-width:0.70710677;stroke-opacity:1"
         d=""
         id="path5593" />
      <path
         style="fill:#000000;fill-opacity:1;stroke:none;stroke-width:0.70710677;stroke-opacity:1"
         d=""
         id="path5595" />
      <path
         style="fill:#000000;fill-opacity:1;stroke:none;stroke-width:0.70710677;stroke-opacity:1"
         d=""
         id="path5599" />
      <path
         style="fill:#000000;fill-opacity:1;stroke:none;stroke-width:0.70710677;stroke-opacity:1"
         d=""
         id="path5601" />
      <path
         style="fill:#000000;fill-opacity:1;stroke:none;stroke-width:0.70710677;stroke-opacity:1"
         d=""
         id="path5603" />
      <path
         style="fill:#000000;fill-opacity:1;stroke:none;stroke-width:0.17677669;stroke-opacity:1"
         d=""
         id="path5607" />
      <path
         style="fill:#000000;fill-opacity:1;stroke:none;stroke-width:0.17677669;stroke-opacity:1"
         d=""
         id="path5633" />
      <g
         id="g5940"
         transform="translate(299.81327,-519.01637)">
        <path
           id="path5930"
           d="m -238.96321,761.53151 c 1.16314,-1.09641 132.37506,-84.33709 213.930381,-135.71715 l 27.324911,-17.21476 56.80275,33.25856 56.802748,33.25855 53.75816,-0.0216 c 29.567,-0.0113 54.60281,-0.55715 55.63514,-1.21162 2.21899,-1.40681 -9.20907,-8.24212 -93.09374,-55.68088 C 48.949476,571.12405 13.691605,551.4265 6.078328,547.74366 l -6.61777,-3.20128 -13.18122,7.5779 c -7.249669,4.16785 -63.774713,38.08434 -125.611188,75.36998 -61.83649,37.28564 -114.42637,68.74776 -116.86641,69.91582 -3.66547,1.75468 -7.29349,1.90715 -20.87743,0.87735 l -16.44101,-1.2464 71.08202,-41.979 c 39.0951,-23.08845 104.1746,-61.52593 144.621115,-85.41664 40.446503,-23.8907 75.13009,-44.04966 77.074634,-44.79769 2.948819,-1.13436 5.178327,-0.41932 13.435029,4.30883 5.444722,3.11789 37.900923,21.53472 72.124891,40.92629 99.431301,56.33858 190.886061,108.24301 191.309801,108.57638 0.21503,0.16917 -30.09887,19.1705 -67.3642,42.22517 l -67.7552,41.91759 H -49.647654 c -112.332186,0 -190.107116,-0.52028 -189.315556,-1.26645 z m 373.98878,-29.95379 c 7.38926,-2.7815 18.52619,-7.55447 24.74873,-10.6066 10.20995,-5.00793 11.35557,-5.97927 11.74276,-9.95628 0.57699,-5.92677 -5.62173,-11.11922 -15.79547,-13.23128 -5.35169,-1.11101 -40.9956,-1.44862 -119.868735,-1.13539 -109.92836,0.43657 -112.41323,0.50707 -120.03039,3.40503 -12.30473,4.68139 -35.805025,16.887 -38.704925,20.10262 -5.65458,6.27022 1.26014,13.42146 15.3704,15.89616 3.11127,0.54566 55.932152,0.90006 117.379731,0.78758 L 121.59054,736.635 Z"
           style="fill:none;fill-opacity:1;stroke:#000000;stroke-width:1.41421354;stroke-opacity:1" />
      </g>
    </g>
    <g
       id="flowRoot2018"
       style="font-style:normal;font-variant:normal;font-weight:bold;font-stretch:normal;font-size:40px;line-height:1.25;font-family:sans-serif;-inkscape-font-specification:'sans-serif, Bold';font-variant-ligatures:normal;font-variant-caps:normal;font-variant-numeric:normal;font-feature-settings:normal;text-align:start;letter-spacing:0px;word-spacing:0px;writing-mode:lr-tb;text-anchor:start;fill:none;fill-opacity:1;stroke:#333333;stroke-opacity:1"
       transform="matrix(0.57281362,0,0,0.57281362,-88.68676,-19.972703)"
       aria-label="DEBORD">
      <path
         style="stroke:#333333;stroke-opacity:1"
         id="path2026"
         d="m 359.41086,365.95415 q 0,7.24 -4.12,10.92 -4.08,3.64 -11.48,3.64 h -8.08 v -28.56 h 8.96 q 4.48,0 7.76,1.6 3.32,1.6 5.12,4.72 1.84,3.08 1.84,7.68 z m -6.28,0.16 q 0,-4.76 -2.08,-6.96 -2.08,-2.24 -6.04,-2.24 h -3.24 v 18.6 h 2.6 q 8.76,0 8.76,-9.4 z" />
      <path
         style="stroke:#333333;stroke-opacity:1"
         id="path2028"
         d="m 381.78023,380.51415 h -16.44 v -28.56 h 16.44 v 4.96 h -10.4 v 6.28 h 9.68 v 4.96 h -9.68 v 7.36 h 10.4 z" />
      <path
         style="stroke:#333333;stroke-opacity:1"
         id="path2030"
         d="m 387.76211,351.95415 h 8.88 q 5.72,0 8.64,1.6 2.92,1.6 2.92,5.64 0,2.44 -1.16,4.12 -1.12,1.68 -3.24,2.04 v 0.2 q 1.44,0.28 2.6,1 1.16,0.72 1.84,2.08 0.68,1.36 0.68,3.6 0,3.88 -2.8,6.08 -2.8,2.2 -7.68,2.2 h -10.68 z m 6.04,11.32 h 3.52 q 2.64,0 3.64,-0.84 1.04,-0.84 1.04,-2.44 0,-1.64 -1.2,-2.36 -1.2,-0.72 -3.8,-0.72 h -3.2 z m 0,4.8 v 7.44 h 3.96 q 2.72,0 3.8,-1.04 1.08,-1.08 1.08,-2.84 0,-1.6 -1.12,-2.56 -1.08,-1 -3.96,-1 z" />
      <path
         style="stroke:#333333;stroke-opacity:1"
         id="path2032"
         d="m 440.55711,366.19415 q 0,4.44 -1.48,7.76 -1.44,3.28 -4.44,5.12 -3,1.84 -7.68,1.84 -4.64,0 -7.68,-1.84 -3,-1.84 -4.48,-5.16 -1.44,-3.32 -1.44,-7.76 0,-4.44 1.44,-7.72 1.48,-3.28 4.48,-5.08 3.04,-1.84 7.72,-1.84 4.64,0 7.64,1.84 3,1.8 4.44,5.12 1.48,3.28 1.48,7.72 z m -20.84,0 q 0,4.48 1.72,7.08 1.72,2.56 5.52,2.56 3.88,0 5.56,-2.56 1.68,-2.6 1.68,-7.08 0,-4.52 -1.68,-7.08 -1.68,-2.56 -5.52,-2.56 -3.84,0 -5.56,2.56 -1.72,2.56 -1.72,7.08 z" />
      <path
         style="stroke:#333333;stroke-opacity:1"
         id="path2034"
         d="m 454.83211,351.95415 q 5.84,0 8.6,2.12 2.8,2.12 2.8,6.44 0,1.96 -0.76,3.44 -0.72,1.44 -1.96,2.48 -1.2,1 -2.6,1.64 l 8.4,12.44 h -6.72 l -6.8,-10.96 h -3.24 v 10.96 h -6.04 v -28.56 z m -0.44,4.96 h -1.84 v 7.72 h 1.96 q 3,0 4.28,-1 1.32,-1 1.32,-2.96 0,-2.04 -1.4,-2.88 -1.36,-0.88 -4.32,-0.88 z" />
      <path
         style="stroke:#333333;stroke-opacity:1"
         id="path2036"
         d="m 496.59836,365.95415 q 0,7.24 -4.12,10.92 -4.08,3.64 -11.48,3.64 h -8.08 v -28.56 h 8.96 q 4.48,0 7.76,1.6 3.32,1.6 5.12,4.72 1.84,3.08 1.84,7.68 z m -6.28,0.16 q 0,-4.76 -2.08,-6.96 -2.08,-2.24 -6.04,-2.24 h -3.24 v 18.6 h 2.6 q 8.76,0 8.76,-9.4 z" />
    </g>
    <g
       transform="matrix(0.26458334,0,0,0.26458334,67.821604,197.9588)"
       id="g1129-8">
      <g
         id="g5450-2"
         transform="translate(-790.4837,48.218043)" />
      <path
         style="fill:#000000;fill-opacity:1;stroke:none;stroke-width:0.01104854;stroke-opacity:1"
         d=""
         id="path5551-9" />
      <path
         style="fill:#000000;fill-opacity:1;stroke:none;stroke-width:0.00390625;stroke-opacity:1"
         d=""
         id="path5557-9" />
      <path
         style="fill:#000000;fill-opacity:1;stroke:none;stroke-width:0.70710677;stroke-opacity:1"
         d=""
         id="path5567-6" />
      <path
         style="fill:#000000;fill-opacity:1;stroke:none;stroke-width:0.70710677;stroke-opacity:1"
         d=""
         id="path5573-0" />
      <path
         style="fill:#000000;fill-opacity:1;stroke:none;stroke-width:0.70710677;stroke-opacity:1"
         d=""
         id="path5593-2" />
      <path
         style="fill:#000000;fill-opacity:1;stroke:none;stroke-width:0.70710677;stroke-opacity:1"
         d=""
         id="path5595-7" />
      <path
         style="fill:#000000;fill-opacity:1;stroke:none;stroke-width:0.70710677;stroke-opacity:1"
         d=""
         id="path5599-6" />
      <path
         style="fill:#000000;fill-opacity:1;stroke:none;stroke-width:0.70710677;stroke-opacity:1"
         d=""
         id="path5601-1" />
      <path
         style="fill:#000000;fill-opacity:1;stroke:none;stroke-width:0.70710677;stroke-opacity:1"
         d=""
         id="path5603-3" />
      <path
         style="fill:#000000;fill-opacity:1;stroke:none;stroke-width:0.17677669;stroke-opacity:1"
         d=""
         id="path5607-2" />
      <path
         style="fill:#000000;fill-opacity:1;stroke:none;stroke-width:0.17677669;stroke-opacity:1"
         d=""
         id="path5633-1" />
      <path
         transform="translate(9.9993555,-292.81518)"
         clip-path="url(/images/yellowdebord)"
         id="path996"
         d="M 156.08386,173.38973 C 493.35147,172.2803 493.35147,172.2803 493.35147,172.2803"
         style="fill:none;stroke:#fdfd00;stroke-width:45.35432816;stroke-linecap:butt;stroke-linejoin:miter;stroke-miterlimit:4;stroke-dasharray:none;stroke-opacity:1" />
    </g>
  </g>
  <style
     type="text/css"
     id="style2">
	.st0{display:none;}
	.st1{fill:#9CA5A5;}
	.st2{fill:#F7EF10;}
</style>
  <style
     type="text/css"
     id="style2-2">
	.st0{display:none;}
	.st1{fill:#9CA5A5;}
	.st2{fill:#F7EF10;}
</style>
</svg>
