<?xml version="1.0" encoding="UTF-8" standalone="no"?>
<!-- Created with Inkscape (http://www.inkscape.org/) -->

<svg
   xmlns:dc="http://purl.org/dc/elements/1.1/"
   xmlns:cc="http://creativecommons.org/ns#"
   xmlns:rdf="http://www.w3.org/1999/02/22-rdf-syntax-ns#"
   xmlns:svg="http://www.w3.org/2000/svg"
   xmlns="http://www.w3.org/2000/svg"
   xmlns:sodipodi="http://sodipodi.sourceforge.net/DTD/sodipodi-0.dtd"
   xmlns:inkscape="http://www.inkscape.org/namespaces/inkscape"
   version="1.0"
   width="200"
   height="179.5551"
   id="svg2"
   sodipodi:docname="ruestsebastien.svg"
   inkscape:version="0.92.4 (5da689c313, 2019-01-14)">
  <metadata
     id="metadata871">
    <rdf:RDF>
      <cc:Work
         rdf:about="">
        <dc:format>image/svg+xml</dc:format>
        <dc:type
           rdf:resource="http://purl.org/dc/dcmitype/StillImage" />
        <dc:title />
      </cc:Work>
    </rdf:RDF>
  </metadata>
  <sodipodi:namedview
     pagecolor="#ffffff"
     bordercolor="#666666"
     borderopacity="1"
     objecttolerance="10"
     gridtolerance="10"
     guidetolerance="10"
     inkscape:pageopacity="0"
     inkscape:pageshadow="2"
     inkscape:window-width="1292"
     inkscape:window-height="741"
     id="namedview869"
     showgrid="false"
     inkscape:zoom="1.4142136"
     inkscape:cx="96.025398"
     inkscape:cy="15.426048"
     inkscape:window-x="74"
     inkscape:window-y="27"
     inkscape:window-maximized="1"
     inkscape:current-layer="svg2" />
  <defs
     id="defs4" />
  <rect
     width="191.7247"
     height="121.79771"
     x="3.6112523"
     y="52.832954"
     id="rect3816"
     style="fill:#002669;fill-opacity:1;fill-rule:nonzero;stroke:none" />
  <path
     d="m 186.69788,74.232477 0,79.809593"
     id="path2933"
     style="fill:none;stroke:#ffffff;stroke-width:1.00375891px;stroke-linecap:butt;stroke-linejoin:miter;stroke-opacity:1" />
  <path
     d="m 25.512654,167.05341 148.953866,0"
     id="path2931"
     style="fill:none;stroke:#ffffff;stroke-width:1.00337422px;stroke-linecap:butt;stroke-linejoin:miter;stroke-opacity:1" />
  <path
     d="M 100,0 C 71.698381,0 52.457318,14.347814 42.0625,32.28125 c -1.415984,2.392013 -5.922277,7.397331 -11.40625,8.5625 l 0,7.96875 -4.96875,0 -25.6875,0 0,23.6875 0,2 0,79.375 0,0.375 0,25.3125 25.6875,0 151.4375,0 22.875,0 0,-25.6875 0,-79.71875 0,-25.34375 -21.71875,0 -8.9375,0 0,-7.96875 C 163.85978,39.678581 159.35348,34.673263 157.9375,32.28125 147.54268,14.347814 128.30162,0 100,0 z m -74.3125,60.3125 148.625,0 0,3.0625 c 0,6.171364 4.98488,11.125 11.15625,11.125 l 1.71875,0 0,79.375 -1.71875,0 c -6.17136,0 -11.15625,4.98489 -11.15625,11.15625 l 0,2.53125 -148.625,0 0,-2.53125 c 0,-6.17137 -4.984886,-11.15625 -11.15625,-11.15625 l -1.71875,0 0,-79.375 1.71875,0 c 6.171364,0 11.15625,-4.953636 11.15625,-11.125 l 0,-3.0625 z"
     id="rect2976"
     style="fill:#004629;fill-opacity:1;fill-rule:nonzero;stroke:none" />
  <path
     d="m 110.12214,11.368862 c 1e-4,0.0202 0,0.03913 0,0.05937 0,6.328282 -5.12965,11.487596 -11.457914,11.487596 -6.209428,0 -11.269981,-4.967271 -11.457912,-11.131392 -0.02849,0.0049 -0.06059,-0.005 -0.08905,0 C 70.836445,14.641431 59.318263,22.831105 52.476371,32.592715 51.31522,34.21489 47.623089,44.893066 43.126002,45.683232 l 0,3.651097 113.747978,0 0,-3.651097 C 152.3769,44.893066 148.68477,34.214889 147.52362,32.592715 140.30403,22.292246 127.85683,13.748778 110.12214,11.368862 z"
     id="path3270"
     style="fill:#002669;fill-opacity:1;fill-rule:evenodd;stroke:none" />
  <path
     d="m 121.01035,13.486331 -0.20568,0.315104 c 7.15768,3.542183 12.1954,5.637863 16.29996,8.609767 4.10456,2.971905 7.36613,6.681239 11.13139,13.238936 1.74809,3.044504 3.82349,6.697443 7.62872,9.825308 l 0,3.591729 -112.738738,0 0,0.949879 113.213678,0 0.47494,0 0,-0.474939 0,-4.244771 0,-0.23747 -0.17811,-0.148418 c -3.78025,-3.037589 -5.7866,-6.631399 -7.56934,-9.736258 -3.80665,-6.629783 -7.18925,-10.474778 -11.39855,-13.535772 -4.21052,-3.061896 -9.29251,-5.038423 -16.65827,-8.153095 z"
     id="path3171"
     style="fill:#ffffff;fill-opacity:1;fill-rule:evenodd;stroke:none" />
  <g
     transform="matrix(0.94987877,0,0,0.94987877,87.936533,-2.3784544)"
     id="g2819">
    <path
       d="M 13.21875,2.8125 C 6.1937252,2.8125001 0.5,8.4764701 0.5,15.5 c 0,1.540787 0.46169361,2.89938 1.125,4.15625 -0.2340266,-1.327003 -0.3125,-2.703406 -0.3125,-4 C 1.3125,8.6439001 6.9916203,2.9547074 14,2.9375 13.729968,2.9109551 13.506253,2.8125 13.21875,2.8125 z"
       id="path3210"
       style="fill:#ffffff;fill-opacity:1;stroke:none" />
    <path
       d="m 13.03125,11.6875 c -2.385968,0 -4.3125,1.926533 -4.3125,4.3125 0,0.958442 0.3766093,1.787564 0.90625,2.5 C 9.5167235,18.041784 9.4010433,17.564289 9.34375,17.125 9.1342653,15.518797 9.7359519,14.131601 10.75,13.1875 c 0.805896,-0.750306 1.881192,-1.161948 3.03125,-1.3125 -0.255643,-0.05293 -0.478889,-0.1875 -0.75,-0.1875 z"
       id="path3226"
       style="fill:#ffffff;fill-opacity:1;stroke:none" />
    <path
       d="m 21.03125,12.71875 c 0.05357,0.529053 0.240525,1.031175 0.25,1.53125 0.06054,3.19548 -1.043915,5.797091 -2.875,7.53125 -1.794131,1.699161 -4.278618,2.539136 -6.96875,2.40625 0.581284,0.169632 1.161263,0.345174 1.8125,0.3125 4.543101,-0.227941 8.300463,-4.268966 8.59375,-8.59375 0.08002,-1.179979 -0.286763,-2.209059 -0.8125,-3.1875 z"
       id="path3238"
       style="fill:#ffffff;fill-opacity:1;stroke:none" />
  </g>
  <g
     transform="matrix(0.95092551,0,0,0.95092551,174.325,48.825497)"
     id="g2850">
    <path
       d="M 13.21875,2.8125 C 6.1937252,2.8125001 0.5,8.4764701 0.5,15.5 c 0,1.540787 0.46169361,2.89938 1.125,4.15625 -0.2340266,-1.327003 -0.3125,-2.703406 -0.3125,-4 C 1.3125,8.6439001 6.9916203,2.9547074 14,2.9375 13.729968,2.9109551 13.506253,2.8125 13.21875,2.8125 z"
       id="path3210-4"
       style="fill:#ffffff;fill-opacity:1;stroke:none" />
    <path
       d="m 13.03125,11.6875 c -2.385968,0 -4.3125,1.926533 -4.3125,4.3125 0,0.958442 0.3766093,1.787564 0.90625,2.5 C 9.5167235,18.041784 9.4010433,17.564289 9.34375,17.125 9.1342653,15.518797 9.7359519,14.131601 10.75,13.1875 c 0.805896,-0.750306 1.881192,-1.161948 3.03125,-1.3125 -0.255643,-0.05293 -0.478889,-0.1875 -0.75,-0.1875 z"
       id="path3226-0"
       style="fill:#ffffff;fill-opacity:1;stroke:none" />
    <path
       d="m 21.03125,12.71875 c 0.05357,0.529053 0.240525,1.031175 0.25,1.53125 0.06054,3.19548 -1.043915,5.797091 -2.875,7.53125 -1.794131,1.699161 -4.278618,2.539136 -6.96875,2.40625 0.581284,0.169632 1.161263,0.345174 1.8125,0.3125 4.543101,-0.227941 8.300463,-4.268966 8.59375,-8.59375 0.08002,-1.179979 -0.286763,-2.209059 -0.8125,-3.1875 z"
       id="path3238-9"
       style="fill:#ffffff;fill-opacity:1;stroke:none" />
  </g>
  <g
     transform="matrix(0.95092551,0,0,0.95092551,1.9018671,48.8255)"
     id="g2819-4">
    <path
       d="M 13.21875,2.8125 C 6.1937252,2.8125001 0.5,8.4764701 0.5,15.5 c 0,1.540787 0.46169361,2.89938 1.125,4.15625 -0.2340266,-1.327003 -0.3125,-2.703406 -0.3125,-4 C 1.3125,8.6439001 6.9916203,2.9547074 14,2.9375 13.729968,2.9109551 13.506253,2.8125 13.21875,2.8125 z"
       id="path3210-5"
       style="fill:#ffffff;fill-opacity:1;stroke:none" />
    <path
       d="m 13.03125,11.6875 c -2.385968,0 -4.3125,1.926533 -4.3125,4.3125 0,0.958442 0.3766093,1.787564 0.90625,2.5 C 9.5167235,18.041784 9.4010433,17.564289 9.34375,17.125 9.1342653,15.518797 9.7359519,14.131601 10.75,13.1875 c 0.805896,-0.750306 1.881192,-1.161948 3.03125,-1.3125 -0.255643,-0.05293 -0.478889,-0.1875 -0.75,-0.1875 z"
       id="path3226-5"
       style="fill:#ffffff;fill-opacity:1;stroke:none" />
    <path
       d="m 21.03125,12.71875 c 0.05357,0.529053 0.240525,1.031175 0.25,1.53125 0.06054,3.19548 -1.043915,5.797091 -2.875,7.53125 -1.794131,1.699161 -4.278618,2.539136 -6.96875,2.40625 0.581284,0.169632 1.161263,0.345174 1.8125,0.3125 4.543101,-0.227941 8.300463,-4.268966 8.59375,-8.59375 0.08002,-1.179979 -0.286763,-2.209059 -0.8125,-3.1875 z"
       id="path3238-1"
       style="fill:#ffffff;fill-opacity:1;stroke:none" />
  </g>
  <g
     transform="matrix(0.95092551,0,0,0.95092551,1.9018592,151.97825)"
     id="g2819-8">
    <path
       d="M 13.21875,2.8125 C 6.1937252,2.8125001 0.5,8.4764701 0.5,15.5 c 0,1.540787 0.46169361,2.89938 1.125,4.15625 -0.2340266,-1.327003 -0.3125,-2.703406 -0.3125,-4 C 1.3125,8.6439001 6.9916203,2.9547074 14,2.9375 13.729968,2.9109551 13.506253,2.8125 13.21875,2.8125 z"
       id="path3210-57"
       style="fill:#ffffff;fill-opacity:1;stroke:none" />
    <path
       d="m 13.03125,11.6875 c -2.385968,0 -4.3125,1.926533 -4.3125,4.3125 0,0.958442 0.3766093,1.787564 0.90625,2.5 C 9.5167235,18.041784 9.4010433,17.564289 9.34375,17.125 9.1342653,15.518797 9.7359519,14.131601 10.75,13.1875 c 0.805896,-0.750306 1.881192,-1.161948 3.03125,-1.3125 -0.255643,-0.05293 -0.478889,-0.1875 -0.75,-0.1875 z"
       id="path3226-6"
       style="fill:#ffffff;fill-opacity:1;stroke:none" />
    <path
       d="m 21.03125,12.71875 c 0.05357,0.529053 0.240525,1.031175 0.25,1.53125 0.06054,3.19548 -1.043915,5.797091 -2.875,7.53125 -1.794131,1.699161 -4.278618,2.539136 -6.96875,2.40625 0.581284,0.169632 1.161263,0.345174 1.8125,0.3125 4.543101,-0.227941 8.300463,-4.268966 8.59375,-8.59375 0.08002,-1.179979 -0.286763,-2.209059 -0.8125,-3.1875 z"
       id="path3238-18"
       style="fill:#ffffff;fill-opacity:1;stroke:none" />
  </g>
  <g
     transform="matrix(0.95092551,0,0,0.95092551,174.32501,151.97824)"
     id="g2819-6">
    <path
       d="M 13.21875,2.8125 C 6.1937252,2.8125001 0.5,8.4764701 0.5,15.5 c 0,1.540787 0.46169361,2.89938 1.125,4.15625 -0.2340266,-1.327003 -0.3125,-2.703406 -0.3125,-4 C 1.3125,8.6439001 6.9916203,2.9547074 14,2.9375 13.729968,2.9109551 13.506253,2.8125 13.21875,2.8125 z"
       id="path3210-1"
       style="fill:#ffffff;fill-opacity:1;stroke:none" />
    <path
       d="m 13.03125,11.6875 c -2.385968,0 -4.3125,1.926533 -4.3125,4.3125 0,0.958442 0.3766093,1.787564 0.90625,2.5 C 9.5167235,18.041784 9.4010433,17.564289 9.34375,17.125 9.1342653,15.518797 9.7359519,14.131601 10.75,13.1875 c 0.805896,-0.750306 1.881192,-1.161948 3.03125,-1.3125 -0.255643,-0.05293 -0.478889,-0.1875 -0.75,-0.1875 z"
       id="path3226-4"
       style="fill:#ffffff;fill-opacity:1;stroke:none" />
    <path
       d="m 21.03125,12.71875 c 0.05357,0.529053 0.240525,1.031175 0.25,1.53125 0.06054,3.19548 -1.043915,5.797091 -2.875,7.53125 -1.794131,1.699161 -4.278618,2.539136 -6.96875,2.40625 0.581284,0.169632 1.161263,0.345174 1.8125,0.3125 4.543101,-0.227941 8.300463,-4.268966 8.59375,-8.59375 0.08002,-1.179979 -0.286763,-2.209059 -0.8125,-3.1875 z"
       id="path3238-2"
       style="fill:#ffffff;fill-opacity:1;stroke:none" />
  </g>
  <g
     transform="translate(1.1749801,0)"
     id="g3046">
    <g
       id="g3035">
      <g
         id="text2949"
         style="font-size:21.79203987px;font-style:normal;font-weight:normal;fill:#ffffff;fill-opacity:1;stroke:none;font-family:Bitstream Vera Sans">
        <path
           d="m 92.805677,42.255386 5.990683,-15.599184 2.22389,0 6.38439,15.599184 -2.35158,0 -1.81955,-4.724446 -6.522717,0 -1.713143,4.724446 z m 4.500992,-6.405668 5.288401,0 -1.62802,-4.320101 c -0.49657,-1.312334 -0.86545,-2.390585 -1.106626,-3.234756 -0.198632,1.000233 -0.478835,1.993359 -0.840611,2.97938 z"
           id="path3026" />
        <path
           d="m 108.80921,42.255386 0,-11.300364 1.72378,0 0,1.713144 c 0.43981,-0.801585 0.84593,-1.33007 1.21835,-1.585456 0.37242,-0.255364 0.78209,-0.383052 1.229,-0.383064 0.64553,1.2e-5 1.3017,0.205731 1.96852,0.617158 l -0.65972,1.776987 c -0.4682,-0.276647 -0.93638,-0.414975 -1.40457,-0.414985 -0.41853,10e-6 -0.7945,0.125924 -1.1279,0.377743 -0.33342,0.251838 -0.57106,0.601205 -0.71293,1.048104 -0.21281,0.681008 -0.31922,1.425853 -0.31922,2.234535 l 0,5.916198 z"
           id="path3028" />
        <path
           d="m 116.0874,42.255386 0,-11.300364 1.72379,0 0,1.713144 c 0.43981,-0.801585 0.84593,-1.33007 1.21835,-1.585456 0.37242,-0.255364 0.78209,-0.383052 1.229,-0.383064 0.64552,1.2e-5 1.3017,0.205731 1.96852,0.617158 l -0.65972,1.776987 c -0.4682,-0.276647 -0.93639,-0.414975 -1.40457,-0.414985 -0.41854,10e-6 -0.7945,0.125924 -1.12791,0.377743 -0.33341,0.251838 -0.57105,0.601205 -0.71292,1.048104 -0.21282,0.681008 -0.31922,1.425853 -0.31922,2.234535 l 0,5.916198 z"
           id="path3030" />
      </g>
      <g
         id="text2953"
         style="font-size:12.46567345px;font-style:normal;font-weight:normal;fill:#ffffff;fill-opacity:1;stroke:none;font-family:Bitstream Vera Sans">
        <path
           d="m 87.304102,31.120902 1.132136,0.139995 c -0.178551,0.661429 -0.509264,1.174745 -0.992141,1.539949 -0.482887,0.365205 -1.099677,0.547808 -1.850373,0.547808 -0.945478,0 -1.695163,-0.29115 -2.249056,-0.873449 -0.553895,-0.582299 -0.830842,-1.398937 -0.830842,-2.449919 0,-1.087496 0.27999,-1.931525 0.839972,-2.53209 0.55998,-0.600553 1.286332,-0.900833 2.179059,-0.90084 0.864314,7e-6 1.570377,0.2942 2.11819,0.88258 0.547802,0.588391 0.821706,1.416189 0.821712,2.483396 -6e-6,0.06493 -0.002,0.162316 -0.0061,0.292164 l -4.820709,0 c 0.04058,0.710123 0.241439,1.253873 0.602588,1.63125 0.361145,0.37738 0.811565,0.566069 1.35126,0.566068 0.401722,10e-7 0.744609,-0.105503 1.028661,-0.316511 0.284044,-0.211006 0.509254,-0.547806 0.67563,-1.010401 z m -3.597272,-1.771246 3.609446,0 c -0.0487,-0.543745 -0.186666,-0.951558 -0.4139,-1.223437 -0.348978,-0.42201 -0.801426,-0.633017 -1.357346,-0.633023 -0.503175,6e-6 -0.926204,0.168406 -1.269088,0.505201 -0.342889,0.336805 -0.532593,0.787224 -0.569112,1.351259 z"
           id="path3033" />
      </g>
      <g
         id="text2953-1"
         style="font-size:12.46567345px;font-style:normal;font-weight:normal;fill:#ffffff;fill-opacity:1;stroke:none;font-family:Bitstream Vera Sans">
        <path
           d="m 127.9572,34.334711 0.15825,0.967794 c -0.30839,0.06493 -0.58433,0.09739 -0.82779,0.09739 -0.39767,0 -0.70607,-0.0629 -0.92519,-0.18869 -0.21912,-0.125792 -0.37332,-0.291149 -0.46259,-0.49607 -0.0893,-0.20492 -0.13391,-0.636065 -0.13391,-1.293435 l 0,-3.719008 -0.80345,0 0,-0.852145 0.80345,0 0,-1.600817 1.08953,-0.657369 0,2.258186 1.1017,0 0,0.852145 -1.1017,0 0,3.779875 c -1e-5,0.312455 0.0193,0.513318 0.0578,0.602589 0.0386,0.08927 0.10144,0.160285 0.18869,0.213036 0.0872,0.05275 0.21202,0.07913 0.37434,0.07913 0.12173,10e-7 0.28201,-0.0142 0.48085,-0.04261 z"
           id="path3021" />
      </g>
    </g>
    <path
       d="m 132.64815,66.240288 a 25.777777,25.777777 0 1 1 -51.555558,0 25.777777,25.777777 0 1 1 51.555558,0 z"
       transform="matrix(0.04514593,0,0,0.04514593,79.221533,38.310081)"
       id="path2990"
       style="fill:#ffffff;fill-opacity:1;fill-rule:nonzero;stroke:#ffffff;stroke-width:3;stroke-linecap:square;stroke-linejoin:round;stroke-miterlimit:4;stroke-opacity:1;stroke-dasharray:none" />
    <path
       d="m 132.64815,66.240288 a 25.777777,25.777777 0 1 1 -51.555558,0 25.777777,25.777777 0 1 1 51.555558,0 z"
       transform="matrix(0.04514593,0,0,0.04514593,122.05921,38.310081)"
       id="path2990-4"
       style="fill:#ffffff;fill-opacity:1;fill-rule:nonzero;stroke:#ffffff;stroke-width:3;stroke-linecap:square;stroke-linejoin:round;stroke-miterlimit:4;stroke-opacity:1;stroke-dasharray:none" />
  </g>
  <g
     aria-label="11"
     transform="translate(-117.12914,-0.64356669)"
     style="font-style:normal;font-variant:normal;font-weight:normal;font-stretch:normal;font-size:26.66666603px;line-height:1.25;font-family:Oswald;-inkscape-font-specification:'Oswald, Normal';font-variant-ligatures:normal;font-variant-caps:normal;font-variant-numeric:normal;font-feature-settings:normal;text-align:start;letter-spacing:0px;word-spacing:0px;writing-mode:lr-tb;text-anchor:start;fill:#ffffff;fill-opacity:1;stroke:none"
     id="flowRoot873">
    <path
       d="M 182.23784,42.819351 V 28.526017 q -0.0213,0.02133 -0.49066,0.128 -0.448,0.106667 -1.024,0.213333 -0.576,0.106667 -1.024,0.192 -0.448,0.08533 -0.46934,0.08533 v -1.728 q 0.36267,-0.08533 0.832,-0.234667 0.49067,-0.149333 0.98134,-0.362667 0.512,-0.213333 0.96,-0.533333 0.46933,-0.32 0.78933,-0.746667 h 1.728 v 17.280001 z"
       style="font-style:normal;font-variant:normal;font-weight:normal;font-stretch:normal;font-size:21.33333397px;font-family:Oswald;-inkscape-font-specification:'Oswald, Normal';font-variant-ligatures:normal;font-variant-caps:normal;font-variant-numeric:normal;font-feature-settings:normal;text-align:start;writing-mode:lr-tb;text-anchor:start"
       id="path868" />
    <path
       d="M 190.69618,42.819351 V 28.526017 q -0.0213,0.02133 -0.49067,0.128 -0.448,0.106667 -1.024,0.213333 -0.576,0.106667 -1.024,0.192 -0.448,0.08533 -0.46933,0.08533 v -1.728 q 0.36266,-0.08533 0.832,-0.234667 0.49066,-0.149333 0.98133,-0.362667 0.512,-0.213333 0.96,-0.533333 0.46933,-0.32 0.78933,-0.746667 h 1.728 v 17.280001 z"
       style="font-style:normal;font-variant:normal;font-weight:normal;font-stretch:normal;font-size:21.33333397px;font-family:Oswald;-inkscape-font-specification:'Oswald, Normal';font-variant-ligatures:normal;font-variant-caps:normal;font-variant-numeric:normal;font-feature-settings:normal;text-align:start;writing-mode:lr-tb;text-anchor:start"
       id="path870" />
  </g>
  <g
     aria-label="SAINT-SÉBASTIEN"
     transform="translate(-266.53242,29.604067)"
     style="font-style:normal;font-variant:normal;font-weight:normal;font-stretch:normal;font-size:40px;line-height:1.25;font-family:Oswald;-inkscape-font-specification:'Oswald, Normal';font-variant-ligatures:normal;font-variant-caps:normal;font-variant-numeric:normal;font-feature-settings:normal;text-align:center;letter-spacing:0px;word-spacing:0px;writing-mode:lr-tb;text-anchor:middle;fill:#ffffff;fill-opacity:1;stroke:none"
     id="flowRoot881">
    <path
       d="m 287.18154,114.66825 q -1.86667,0 -3.12,-0.8 -1.22667,-0.8 -1.86667,-2.21334 -0.64,-1.41333 -0.74666,-3.28 l 2.66666,-0.72 q 0.08,1.14667 0.34667,2.21334 0.29333,1.06666 0.93333,1.76 0.64,0.66666 1.78667,0.66666 1.17333,0 1.76,-0.64 0.61333,-0.66666 0.61333,-1.89333 0,-1.46667 -0.66667,-2.34667 -0.66666,-0.90666 -1.67999,-1.81333 l -3.62667,-3.2 q -1.06667,-0.93333 -1.57333,-2.02667 -0.50667,-1.119997 -0.50667,-2.746664 0,-2.373333 1.36,-3.68 1.36,-1.306666 3.70667,-1.306666 1.27999,0 2.23999,0.346666 0.98667,0.32 1.62667,1.013334 0.66667,0.693333 1.04,1.759999 0.4,1.04 0.53333,2.453334 l -2.56,0.693333 q -0.08,-1.066667 -0.32,-1.946667 -0.24,-0.906666 -0.85333,-1.439999 -0.58667,-0.56 -1.70666,-0.56 -1.12,0 -1.76,0.613333 -0.61334,0.586666 -0.61334,1.76 0,0.986666 0.32,1.626666 0.34667,0.64 1.09334,1.306671 l 3.65333,3.2 q 1.22666,1.06666 2.16,2.56 0.93333,1.46666 0.93333,3.49333 0,1.6 -0.66667,2.77333 -0.66666,1.14667 -1.84,1.76 -1.14666,0.61334 -2.66666,0.61334 z"
       style="font-style:normal;font-variant:normal;font-weight:normal;font-stretch:normal;font-size:26.66666603px;font-family:Oswald;-inkscape-font-specification:'Oswald, Normal';font-variant-ligatures:normal;font-variant-caps:normal;font-variant-numeric:normal;font-feature-settings:normal;text-align:center;writing-mode:lr-tb;text-anchor:middle"
       id="path873" />
    <path
       d="m 293.51904,114.42825 4.58666,-21.600004 h 2.90667 l 4.61333,21.600004 h -2.85333 l -0.98667,-5.44 h -4.4 l -1.04,5.44 z m 4.26666,-7.6 h 3.6 l -1.81333,-9.733337 z"
       style="font-style:normal;font-variant:normal;font-weight:normal;font-stretch:normal;font-size:26.66666603px;font-family:Oswald;-inkscape-font-specification:'Oswald, Normal';font-variant-ligatures:normal;font-variant-caps:normal;font-variant-numeric:normal;font-feature-settings:normal;text-align:center;writing-mode:lr-tb;text-anchor:middle"
       id="path875" />
    <path
       d="M 307.97737,114.42825 V 92.828246 h 2.96 v 21.600004 z"
       style="font-style:normal;font-variant:normal;font-weight:normal;font-stretch:normal;font-size:26.66666603px;font-family:Oswald;-inkscape-font-specification:'Oswald, Normal';font-variant-ligatures:normal;font-variant-caps:normal;font-variant-numeric:normal;font-feature-settings:normal;text-align:center;writing-mode:lr-tb;text-anchor:middle"
       id="path877" />
    <path
       d="M 314.43196,114.42825 V 92.828246 h 2.05333 l 6.13333,14.346664 V 92.828246 h 2.50667 v 21.600004 h -1.92 l -6.21333,-14.746671 v 14.746671 z"
       style="font-style:normal;font-variant:normal;font-weight:normal;font-stretch:normal;font-size:26.66666603px;font-family:Oswald;-inkscape-font-specification:'Oswald, Normal';font-variant-ligatures:normal;font-variant-caps:normal;font-variant-numeric:normal;font-feature-settings:normal;text-align:center;writing-mode:lr-tb;text-anchor:middle"
       id="path879" />
    <path
       d="M 330.86779,114.42825 V 95.068246 h -3.65333 v -2.24 h 10.21333 v 2.24 h -3.54667 v 19.360004 z"
       style="font-style:normal;font-variant:normal;font-weight:normal;font-stretch:normal;font-size:26.66666603px;font-family:Oswald;-inkscape-font-specification:'Oswald, Normal';font-variant-ligatures:normal;font-variant-caps:normal;font-variant-numeric:normal;font-feature-settings:normal;text-align:center;writing-mode:lr-tb;text-anchor:middle"
       id="path881" />
    <path
       d="m 339.1107,107.46825 v -2.16 h 5.94667 v 2.16 z"
       style="font-style:normal;font-variant:normal;font-weight:normal;font-stretch:normal;font-size:26.66666603px;font-family:Oswald;-inkscape-font-specification:'Oswald, Normal';font-variant-ligatures:normal;font-variant-caps:normal;font-variant-numeric:normal;font-feature-settings:normal;text-align:center;writing-mode:lr-tb;text-anchor:middle"
       id="path883" />
    <path
       d="m 353.11904,114.66825 q -1.86667,0 -3.12,-0.8 -1.22667,-0.8 -1.86667,-2.21334 -0.64,-1.41333 -0.74666,-3.28 l 2.66666,-0.72 q 0.08,1.14667 0.34667,2.21334 0.29333,1.06666 0.93333,1.76 0.64,0.66666 1.78667,0.66666 1.17333,0 1.76,-0.64 0.61333,-0.66666 0.61333,-1.89333 0,-1.46667 -0.66667,-2.34667 -0.66666,-0.90666 -1.67999,-1.81333 l -3.62667,-3.2 q -1.06667,-0.93333 -1.57333,-2.02667 -0.50667,-1.119997 -0.50667,-2.746664 0,-2.373333 1.36,-3.68 1.36,-1.306666 3.70667,-1.306666 1.27999,0 2.23999,0.346666 0.98667,0.32 1.62667,1.013334 0.66667,0.693333 1.04,1.759999 0.4,1.04 0.53333,2.453334 l -2.56,0.693333 q -0.08,-1.066667 -0.32,-1.946667 -0.24,-0.906666 -0.85333,-1.439999 -0.58667,-0.56 -1.70666,-0.56 -1.12,0 -1.76,0.613333 -0.61334,0.586666 -0.61334,1.76 0,0.986666 0.32,1.626666 0.34667,0.64 1.09334,1.306671 l 3.65333,3.2 q 1.22666,1.06666 2.16,2.56 0.93333,1.46666 0.93333,3.49333 0,1.6 -0.66667,2.77333 -0.66666,1.14667 -1.84,1.76 -1.14666,0.61334 -2.66666,0.61334 z"
       style="font-style:normal;font-variant:normal;font-weight:normal;font-stretch:normal;font-size:26.66666603px;font-family:Oswald;-inkscape-font-specification:'Oswald, Normal';font-variant-ligatures:normal;font-variant-caps:normal;font-variant-numeric:normal;font-feature-settings:normal;text-align:center;writing-mode:lr-tb;text-anchor:middle"
       id="path885" />
    <path
       d="M 360.62987,114.42825 V 92.828246 h 8.37333 v 2.24 h -5.36 v 7.146664 h 4.34667 v 2.13334 h -4.34667 v 7.92 h 5.41334 v 2.16 z m 3.54667,-22.880004 1.57333,-5.28 h 2.85333 l -2.98666,5.28 z"
       style="font-style:normal;font-variant:normal;font-weight:normal;font-stretch:normal;font-size:26.66666603px;font-family:Oswald;-inkscape-font-specification:'Oswald, Normal';font-variant-ligatures:normal;font-variant-caps:normal;font-variant-numeric:normal;font-feature-settings:normal;text-align:center;writing-mode:lr-tb;text-anchor:middle"
       id="path887" />
    <path
       d="M 371.46321,114.42825 V 92.828246 h 4.96 q 1.46666,0 2.53333,0.32 1.09333,0.32 1.81333,0.986667 0.72,0.666667 1.06667,1.706666 0.34666,1.013334 0.34666,2.4 0,1.333334 -0.34666,2.320001 -0.32,0.96 -1.01334,1.52 -0.66666,0.56 -1.73333,0.72 1.30667,0.29333 2.10667,1.01333 0.8,0.69334 1.17333,1.81334 0.4,1.09333 0.4,2.64 0,1.38666 -0.32,2.53333 -0.32,1.14667 -1.01333,1.94667 -0.66667,0.8 -1.73334,1.25333 -1.04,0.42667 -2.48,0.42667 z m 3.01333,-2.16 h 2.02667 q 2.02666,0 2.69333,-0.93334 0.69333,-0.96 0.69333,-3.06666 0,-1.36 -0.37333,-2.26667 -0.34667,-0.93333 -1.14667,-1.38667 -0.77333,-0.48 -2.10666,-0.48 h -1.78667 z m 0,-10.42667 h 1.78667 q 1.27999,0 1.99999,-0.34667 0.72,-0.37333 1.01334,-1.17333 0.29333,-0.800001 0.29333,-2.080001 0,-1.493333 -0.45333,-2.16 -0.45334,-0.666666 -1.41334,-0.826666 -0.95999,-0.186667 -2.50666,-0.186667 h -0.72 z"
       style="font-style:normal;font-variant:normal;font-weight:normal;font-stretch:normal;font-size:26.66666603px;font-family:Oswald;-inkscape-font-specification:'Oswald, Normal';font-variant-ligatures:normal;font-variant-caps:normal;font-variant-numeric:normal;font-feature-settings:normal;text-align:center;writing-mode:lr-tb;text-anchor:middle"
       id="path889" />
    <path
       d="m 384.2482,114.42825 4.58667,-21.600004 h 2.90666 l 4.61334,21.600004 h -2.85334 l -0.98666,-5.44 h -4.4 l -1.04,5.44 z m 4.26667,-7.6 h 3.6 l -1.81334,-9.733337 z"
       style="font-style:normal;font-variant:normal;font-weight:normal;font-stretch:normal;font-size:26.66666603px;font-family:Oswald;-inkscape-font-specification:'Oswald, Normal';font-variant-ligatures:normal;font-variant-caps:normal;font-variant-numeric:normal;font-feature-settings:normal;text-align:center;writing-mode:lr-tb;text-anchor:middle"
       id="path891" />
    <path
       d="m 403.63987,114.66825 q -1.86667,0 -3.12,-0.8 -1.22667,-0.8 -1.86667,-2.21334 -0.64,-1.41333 -0.74667,-3.28 l 2.66667,-0.72 q 0.08,1.14667 0.34667,2.21334 0.29333,1.06666 0.93333,1.76 0.64,0.66666 1.78667,0.66666 1.17333,0 1.76,-0.64 0.61333,-0.66666 0.61333,-1.89333 0,-1.46667 -0.66667,-2.34667 -0.66666,-0.90666 -1.68,-1.81333 l -3.62666,-3.2 q -1.06667,-0.93333 -1.57334,-2.02667 -0.50666,-1.119997 -0.50666,-2.746664 0,-2.373333 1.36,-3.68 1.36,-1.306666 3.70666,-1.306666 1.28,0 2.24,0.346666 0.98667,0.32 1.62667,1.013334 0.66667,0.693333 1.04,1.759999 0.4,1.04 0.53333,2.453334 l -2.56,0.693333 q -0.08,-1.066667 -0.32,-1.946667 -0.24,-0.906666 -0.85333,-1.439999 -0.58667,-0.56 -1.70667,-0.56 -1.12,0 -1.76,0.613333 -0.61333,0.586666 -0.61333,1.76 0,0.986666 0.32,1.626666 0.34667,0.64 1.09333,1.306671 l 3.65334,3.2 q 1.22666,1.06666 2.16,2.56 0.93333,1.46666 0.93333,3.49333 0,1.6 -0.66667,2.77333 -0.66666,1.14667 -1.84,1.76 -1.14666,0.61334 -2.66666,0.61334 z"
       style="font-style:normal;font-variant:normal;font-weight:normal;font-stretch:normal;font-size:26.66666603px;font-family:Oswald;-inkscape-font-specification:'Oswald, Normal';font-variant-ligatures:normal;font-variant-caps:normal;font-variant-numeric:normal;font-feature-settings:normal;text-align:center;writing-mode:lr-tb;text-anchor:middle"
       id="path893" />
    <path
       d="M 413.52404,114.42825 V 95.068246 h -3.65333 v -2.24 h 10.21333 v 2.24 h -3.54667 v 19.360004 z"
       style="font-style:normal;font-variant:normal;font-weight:normal;font-stretch:normal;font-size:26.66666603px;font-family:Oswald;-inkscape-font-specification:'Oswald, Normal';font-variant-ligatures:normal;font-variant-caps:normal;font-variant-numeric:normal;font-feature-settings:normal;text-align:center;writing-mode:lr-tb;text-anchor:middle"
       id="path895" />
    <path
       d="M 422.30028,114.42825 V 92.828246 h 2.96 v 21.600004 z"
       style="font-style:normal;font-variant:normal;font-weight:normal;font-stretch:normal;font-size:26.66666603px;font-family:Oswald;-inkscape-font-specification:'Oswald, Normal';font-variant-ligatures:normal;font-variant-caps:normal;font-variant-numeric:normal;font-feature-settings:normal;text-align:center;writing-mode:lr-tb;text-anchor:middle"
       id="path897" />
    <path
       d="M 428.75486,114.42825 V 92.828246 h 8.37333 v 2.24 h -5.36 v 7.146664 h 4.34667 v 2.13334 h -4.34667 v 7.92 h 5.41334 v 2.16 z"
       style="font-style:normal;font-variant:normal;font-weight:normal;font-stretch:normal;font-size:26.66666603px;font-family:Oswald;-inkscape-font-specification:'Oswald, Normal';font-variant-ligatures:normal;font-variant-caps:normal;font-variant-numeric:normal;font-feature-settings:normal;text-align:center;writing-mode:lr-tb;text-anchor:middle"
       id="path899" />
    <path
       d="M 439.58821,114.42825 V 92.828246 h 2.05333 l 6.13333,14.346664 V 92.828246 h 2.50667 v 21.600004 h -1.92 l -6.21333,-14.746671 v 14.746671 z"
       style="font-style:normal;font-variant:normal;font-weight:normal;font-stretch:normal;font-size:26.66666603px;font-family:Oswald;-inkscape-font-specification:'Oswald, Normal';font-variant-ligatures:normal;font-variant-caps:normal;font-variant-numeric:normal;font-feature-settings:normal;text-align:center;writing-mode:lr-tb;text-anchor:middle"
       id="path901" />
  </g>
  <g
     aria-label="RUE"
     transform="translate(-274.43742,-4.9919797)"
     style="font-style:normal;font-variant:normal;font-weight:normal;font-stretch:normal;font-size:26.66666603px;line-height:1.25;font-family:Oswald;-inkscape-font-specification:'Oswald, Normal';font-variant-ligatures:normal;font-variant-caps:normal;font-variant-numeric:normal;font-feature-settings:normal;text-align:center;letter-spacing:0px;word-spacing:0px;writing-mode:lr-tb;text-anchor:middle;fill:#ffffff;fill-opacity:1;stroke:none"
     id="flowRoot881-5">
    <path
       d="M 356.00975,102.02834 V 80.428336 h 4.34667 q 2.16,0 3.57333,0.586666 1.41334,0.56 2.08,1.84 0.69334,1.253334 0.69334,3.306667 0,1.253333 -0.26667,2.293333 -0.26667,1.013333 -0.85333,1.733333 -0.58667,0.693334 -1.54667,1.013334 l 3.06667,10.826671 h -2.90667 l -2.82667,-10.133338 h -2.34666 v 10.133338 z m 3.01334,-12.293338 h 1.14666 q 1.28,0 2.08,-0.32 0.8,-0.32 1.17334,-1.093333 0.37333,-0.773334 0.37333,-2.16 0,-1.893333 -0.69333,-2.72 -0.69334,-0.853333 -2.74667,-0.853333 h -1.33333 z"
       style=""
       id="path904" />
    <path
       d="m 375.43725,102.26834 q -2.34666,0 -3.6,-0.93334 -1.25333,-0.93333 -1.70666,-2.613331 -0.45334,-1.706667 -0.45334,-3.973334 V 80.428336 h 2.88 v 14.453333 q 0,1.386666 0.18667,2.533333 0.18667,1.146667 0.8,1.813333 0.64,0.666667 1.89333,0.666667 1.28,0 1.89334,-0.666667 0.61333,-0.666666 0.8,-1.813333 0.18666,-1.146667 0.18666,-2.533333 V 80.428336 h 2.85334 v 14.319999 q 0,2.266667 -0.45334,3.973334 -0.45333,1.680001 -1.70666,2.613331 -1.22667,0.93334 -3.57334,0.93334 z"
       style=""
       id="path906" />
    <path
       d="M 384.34309,102.02834 V 80.428336 h 8.37333 v 2.24 h -5.36 v 7.146666 h 4.34666 v 2.133333 h -4.34666 v 7.92 h 5.41333 v 2.160005 z"
       style=""
       id="path908" />
  </g>
  <flowRoot
     xml:space="preserve"
     id="flowRoot881-5-1"
     style="font-style:normal;font-variant:normal;font-weight:normal;font-stretch:normal;font-size:29.33333397px;line-height:1.25;font-family:Oswald;-inkscape-font-specification:'Oswald, Normal';font-variant-ligatures:normal;font-variant-caps:normal;font-variant-numeric:normal;font-feature-settings:normal;text-align:center;letter-spacing:0px;word-spacing:0px;writing-mode:lr-tb;text-anchor:middle;fill:#ffffff;fill-opacity:1;stroke:none"
     transform="translate(-274.43742,17.933149)"><flowRegion
       id="flowRegion883-0-4"
       style="font-style:normal;font-variant:normal;font-weight:normal;font-stretch:normal;font-size:29.33333397px;font-family:Oswald;-inkscape-font-specification:'Oswald, Normal';font-variant-ligatures:normal;font-variant-caps:normal;font-variant-numeric:normal;font-feature-settings:normal;text-align:center;writing-mode:lr-tb;text-anchor:middle;fill:#ffffff;fill-opacity:1"><rect
         id="rect885-1-5"
         width="207.22847"
         height="178.91153"
         x="270.298"
         y="77.227997"
         style="font-style:normal;font-variant:normal;font-weight:normal;font-stretch:normal;font-size:29.33333397px;font-family:Oswald;-inkscape-font-specification:'Oswald, Normal';font-variant-ligatures:normal;font-variant-caps:normal;font-variant-numeric:normal;font-feature-settings:normal;text-align:center;writing-mode:lr-tb;text-anchor:middle;fill:#ffffff;fill-opacity:1" /></flowRegion><flowPara
       id="flowPara887-5-2" /></flowRoot></svg>
